Project 1- Applied Data Science
…
From these views we recognize that the dataset is very skewed in terms of the years from which songs are placed in. The 2000s decade seem to have more than half of the number of songs as all other decades combined. This implies that the genre of music will be more modern than it would have been had there been a greater collection of older songs. For example, due to this we expect more pop and hip hop songs within the dataset than, for example, Jazz or Blues.

In order to confirm this exactly, we will take a look at the year that each song was made and see which years have the highest numbers of songs. This will be useful to see if there is some sort of centrality to the large number of songs that comprise the 2000s.

# Showing majority of songs made in 2006

t <- dt_lyrics %>% group_by(year) %>% 
  summarise(Count=n()) %>% arrange(desc(Count))
print(tbl_df(t), n=10)

## # A tibble: 48 x 2
##     year Count
##    <dbl> <int>
##  1  2006 21181
##  2  2007 15335
##  3  2008  4086
##  4  2014  2467
##  5  2010  2100
##  6  2009  2079
##  7  2013  1730
##  8  2015  1678
##  9  2012  1676
## 10  2011  1651
## # ... with 38 more rows
…
## # A tibble: 55 x 4
## # Groups:   genre [12]
##    genre         decade songs GenrePerc
##    <fct>         <fct>  <int>     <dbl>
##  1 Rock          2000   25245    0.402 
##  2 Pop           2000    6274    0.0998
##  3 Rock          2010    5139    0.0818
##  4 Metal         2000    4568    0.0727
##  5 Hip-Hop       2000    3200    0.0509
##  6 Country       2000    2826    0.0450
##  7 Pop           2010    2704    0.0430
##  8 Rock          1990    1345    0.0214
##  9 Jazz          2000    1261    0.0201
## 10 Not Available 2000    1173    0.0187
## # ... with 45 more rows
…
